<?xml version="1.0" encoding="UTF-8" standalone="no"?>
<svg
   xmlns:dc="http://purl.org/dc/elements/1.1/"
   xmlns:cc="http://creativecommons.org/ns#"
   xmlns:rdf="http://www.w3.org/1999/02/22-rdf-syntax-ns#"
   xmlns:svg="http://www.w3.org/2000/svg"
   xmlns="http://www.w3.org/2000/svg"
   xmlns:sodipodi="http://sodipodi.sourceforge.net/DTD/sodipodi-0.dtd"
   xmlns:inkscape="http://www.inkscape.org/namespaces/inkscape"
   version="1.0"
   width="30"
   height="30"
   id="radioactive"
   sodipodi:docname="laser_cursor.svg"
   inkscape:version="1.0.2 (e86c870879, 2021-01-15, custom)">
  <sodipodi:namedview
     pagecolor="#ffffff"
     bordercolor="#666666"
     borderopacity="1"
     objecttolerance="10"
     gridtolerance="10"
     guidetolerance="10"
     inkscape:pageopacity="0"
     inkscape:pageshadow="2"
     inkscape:window-width="1920"
     inkscape:window-height="1080"
     id="namedview2170"
     showgrid="false"
     inkscape:zoom="8.249481"
     inkscape:cx="-10.297092"
     inkscape:cy="24.258253"
     inkscape:window-x="0"
     inkscape:window-y="0"
     inkscape:window-maximized="0"
     inkscape:current-layer="layer2"
     inkscape:document-rotation="0" />
  <metadata
     id="metadata2314">
    <rdf:RDF>
      <cc:Work
         rdf:about="">
        <dc:format>image/svg+xml</dc:format>
        <dc:type
           rdf:resource="http://purl.org/dc/dcmitype/StillImage" />
        <dc:title></dc:title>
      </cc:Work>
    </rdf:RDF>
  </metadata>
  <defs
     id="defs2312">
    <inkscape:path-effect
       effect="powerclip"
       id="path-effect2304"
       is_visible="true"
       lpeversion="1"
       inverse="true"
       flatten="false"
       hide_clip="false"
       message="Utilise la règle de remplissage « fill-rule: evenodd » de la boîte de dialogue &lt;b&gt;Fond et contour&lt;/b&gt; en l'absence de résultat de mise à plat après une conversion en chemin." />
    <inkscape:path-effect
       effect="powerclip"
       id="path-effect2300"
       is_visible="true"
       lpeversion="1"
       inverse="true"
       flatten="false"
       hide_clip="false"
       message="Utilise la règle de remplissage « fill-rule: evenodd » de la boîte de dialogue &lt;b&gt;Fond et contour&lt;/b&gt; en l'absence de résultat de mise à plat après une conversion en chemin." />
    <inkscape:path-effect
       effect="powerclip"
       id="path-effect2296"
       is_visible="true"
       lpeversion="1"
       inverse="true"
       flatten="false"
       hide_clip="false"
       message="Utilise la règle de remplissage « fill-rule: evenodd » de la boîte de dialogue &lt;b&gt;Fond et contour&lt;/b&gt; en l'absence de résultat de mise à plat après une conversion en chemin." />
    <inkscape:path-effect
       effect="powerclip"
       id="path-effect2292"
       is_visible="true"
       lpeversion="1"
       inverse="true"
       flatten="false"
       hide_clip="false"
       message="Utilise la règle de remplissage « fill-rule: evenodd » de la boîte de dialogue &lt;b&gt;Fond et contour&lt;/b&gt; en l'absence de résultat de mise à plat après une conversion en chemin." />
    <inkscape:path-effect
       effect="powerclip"
       id="path-effect2288"
       is_visible="true"
       lpeversion="1"
       inverse="true"
       flatten="false"
       hide_clip="false"
       message="Utilise la règle de remplissage « fill-rule: evenodd » de la boîte de dialogue &lt;b&gt;Fond et contour&lt;/b&gt; en l'absence de résultat de mise à plat après une conversion en chemin." />
    <inkscape:path-effect
       effect="powerclip"
       id="path-effect2284"
       is_visible="true"
       lpeversion="1"
       inverse="true"
       flatten="false"
       hide_clip="false"
       message="Utilise la règle de remplissage « fill-rule: evenodd » de la boîte de dialogue &lt;b&gt;Fond et contour&lt;/b&gt; en l'absence de résultat de mise à plat après une conversion en chemin." />
    <inkscape:path-effect
       effect="powerclip"
       id="path-effect2280"
       is_visible="true"
       lpeversion="1"
       inverse="true"
       flatten="false"
       hide_clip="false"
       message="Utilise la règle de remplissage « fill-rule: evenodd » de la boîte de dialogue &lt;b&gt;Fond et contour&lt;/b&gt; en l'absence de résultat de mise à plat après une conversion en chemin." />
    <inkscape:path-effect
       effect="powerclip"
       id="path-effect2276"
       is_visible="true"
       lpeversion="1"
       inverse="true"
       flatten="false"
       hide_clip="false"
       message="Utilise la règle de remplissage « fill-rule: evenodd » de la boîte de dialogue &lt;b&gt;Fond et contour&lt;/b&gt; en l'absence de résultat de mise à plat après une conversion en chemin." />
    <inkscape:path-effect
       effect="powerclip"
       id="path-effect2272"
       is_visible="true"
       lpeversion="1"
       inverse="true"
       flatten="false"
       hide_clip="false"
       message="Utilise la règle de remplissage « fill-rule: evenodd » de la boîte de dialogue &lt;b&gt;Fond et contour&lt;/b&gt; en l'absence de résultat de mise à plat après une conversion en chemin." />
    <inkscape:path-effect
       effect="powerclip"
       id="path-effect2268"
       is_visible="true"
       lpeversion="1"
       inverse="true"
       flatten="false"
       hide_clip="false"
       message="Utilise la règle de remplissage « fill-rule: evenodd » de la boîte de dialogue &lt;b&gt;Fond et contour&lt;/b&gt; en l'absence de résultat de mise à plat après une conversion en chemin." />
    <inkscape:path-effect
       effect="powerclip"
       id="path-effect2264"
       is_visible="true"
       lpeversion="1"
       inverse="true"
       flatten="false"
       hide_clip="false"
       message="Utilise la règle de remplissage « fill-rule: evenodd » de la boîte de dialogue &lt;b&gt;Fond et contour&lt;/b&gt; en l'absence de résultat de mise à plat après une conversion en chemin." />
    <inkscape:path-effect
       effect="powerclip"
       id="path-effect2260"
       is_visible="true"
       lpeversion="1"
       inverse="true"
       flatten="false"
       hide_clip="false"
       message="Utilise la règle de remplissage « fill-rule: evenodd » de la boîte de dialogue &lt;b&gt;Fond et contour&lt;/b&gt; en l'absence de résultat de mise à plat après une conversion en chemin." />
    <inkscape:path-effect
       effect="powerclip"
       id="path-effect2256"
       is_visible="true"
       lpeversion="1"
       inverse="true"
       flatten="false"
       hide_clip="false"
       message="Utilise la règle de remplissage « fill-rule: evenodd » de la boîte de dialogue &lt;b&gt;Fond et contour&lt;/b&gt; en l'absence de résultat de mise à plat après une conversion en chemin." />
    <inkscape:path-effect
       effect="powerclip"
       id="path-effect2252"
       is_visible="true"
       lpeversion="1"
       inverse="true"
       flatten="false"
       hide_clip="false"
       message="Utilise la règle de remplissage « fill-rule: evenodd » de la boîte de dialogue &lt;b&gt;Fond et contour&lt;/b&gt; en l'absence de résultat de mise à plat après une conversion en chemin." />
    <inkscape:path-effect
       effect="powerclip"
       id="path-effect2248"
       is_visible="true"
       lpeversion="1"
       inverse="true"
       flatten="false"
       hide_clip="false"
       message="Utilise la règle de remplissage « fill-rule: evenodd » de la boîte de dialogue &lt;b&gt;Fond et contour&lt;/b&gt; en l'absence de résultat de mise à plat après une conversion en chemin." />
    <inkscape:path-effect
       effect="powerclip"
       id="path-effect2244"
       is_visible="true"
       lpeversion="1"
       inverse="true"
       flatten="false"
       hide_clip="false"
       message="Utilise la règle de remplissage « fill-rule: evenodd » de la boîte de dialogue &lt;b&gt;Fond et contour&lt;/b&gt; en l'absence de résultat de mise à plat après une conversion en chemin." />
    <inkscape:path-effect
       effect="powerclip"
       id="path-effect2240"
       is_visible="true"
       lpeversion="1"
       inverse="true"
       flatten="false"
       hide_clip="false"
       message="Utilise la règle de remplissage « fill-rule: evenodd » de la boîte de dialogue &lt;b&gt;Fond et contour&lt;/b&gt; en l'absence de résultat de mise à plat après une conversion en chemin." />
    <inkscape:path-effect
       effect="powerclip"
       id="path-effect2236"
       is_visible="true"
       lpeversion="1"
       inverse="true"
       flatten="false"
       hide_clip="false"
       message="Utilise la règle de remplissage « fill-rule: evenodd » de la boîte de dialogue &lt;b&gt;Fond et contour&lt;/b&gt; en l'absence de résultat de mise à plat après une conversion en chemin." />
    <inkscape:path-effect
       effect="powerclip"
       id="path-effect2232"
       is_visible="true"
       lpeversion="1"
       inverse="true"
       flatten="false"
       hide_clip="false"
       message="Utilise la règle de remplissage « fill-rule: evenodd » de la boîte de dialogue &lt;b&gt;Fond et contour&lt;/b&gt; en l'absence de résultat de mise à plat après une conversion en chemin." />
    <inkscape:path-effect
       effect="powerclip"
       id="path-effect2228"
       is_visible="true"
       lpeversion="1"
       inverse="true"
       flatten="false"
       hide_clip="false"
       message="Utilise la règle de remplissage « fill-rule: evenodd » de la boîte de dialogue &lt;b&gt;Fond et contour&lt;/b&gt; en l'absence de résultat de mise à plat après une conversion en chemin." />
    <inkscape:path-effect
       effect="powerclip"
       id="path-effect2224"
       is_visible="true"
       lpeversion="1"
       inverse="true"
       flatten="false"
       hide_clip="false"
       message="Utilise la règle de remplissage « fill-rule: evenodd » de la boîte de dialogue &lt;b&gt;Fond et contour&lt;/b&gt; en l'absence de résultat de mise à plat après une conversion en chemin." />
    <inkscape:path-effect
       effect="powerclip"
       id="path-effect2220"
       is_visible="true"
       lpeversion="1"
       inverse="true"
       flatten="false"
       hide_clip="false"
       message="Utilise la règle de remplissage « fill-rule: evenodd » de la boîte de dialogue &lt;b&gt;Fond et contour&lt;/b&gt; en l'absence de résultat de mise à plat après une conversion en chemin." />
    <inkscape:path-effect
       effect="powerclip"
       id="path-effect2216"
       is_visible="true"
       lpeversion="1"
       inverse="true"
       flatten="false"
       hide_clip="false"
       message="Utilise la règle de remplissage « fill-rule: evenodd » de la boîte de dialogue &lt;b&gt;Fond et contour&lt;/b&gt; en l'absence de résultat de mise à plat après une conversion en chemin." />
    <inkscape:path-effect
       effect="powerclip"
       id="path-effect2212"
       is_visible="true"
       lpeversion="1"
       inverse="true"
       flatten="false"
       hide_clip="false"
       message="Utilise la règle de remplissage « fill-rule: evenodd » de la boîte de dialogue &lt;b&gt;Fond et contour&lt;/b&gt; en l'absence de résultat de mise à plat après une conversion en chemin." />
    <inkscape:path-effect
       effect="powerclip"
       id="path-effect2208"
       is_visible="true"
       lpeversion="1"
       inverse="true"
       flatten="false"
       hide_clip="false"
       message="Utilise la règle de remplissage « fill-rule: evenodd » de la boîte de dialogue &lt;b&gt;Fond et contour&lt;/b&gt; en l'absence de résultat de mise à plat après une conversion en chemin." />
    <marker
       orient="auto"
       refY="0"
       refX="0"
       id="Torso"
       style="overflow:visible">
      <g
         id="g3468"
         transform="scale(0.7)">
        <path
           id="path3470"
           d="m -4.7792281,-3.239542 c 2.350374,0.3659393 5.30026732,1.9375477 5.03715532,3.62748546 C -0.00518779,2.0778819 -2.2126741,2.6176539 -4.5630471,2.2517169 -6.9134221,1.8857769 -8.521035,0.75201414 -8.257922,-0.93792336 -7.994809,-2.6278615 -7.1296041,-3.6054813 -4.7792281,-3.239542 Z"
           style="fill:none;fill-opacity:0.75;fill-rule:evenodd;stroke:#000000;stroke-width:1.25;marker-start:none;marker-mid:none;marker-end:none" />
        <path
           id="path3472"
           d="M 4.4598789,0.08866574 C -2.5564571,-4.378332 5.2248769,-3.9061806 -0.84829578,-8.7197331"
           style="fill:none;fill-opacity:0.75;fill-rule:evenodd;stroke:#000000;stroke-width:1pt;marker-end:none" />
        <path
           id="path3474"
           d="M 4.9298719,0.05752074 C -1.3872731,1.7494689 1.8027579,5.4782079 -4.9448731,7.5462725"
           style="fill:none;fill-opacity:0.75;fill-rule:evenodd;stroke:#000000;stroke-width:1pt;marker-start:none;marker-end:none" />
        <rect
           id="rect3476"
           transform="matrix(0.527536,-0.849533,0.887668,0.460484,0,0)"
           y="-1.7408575"
           x="-10.391706"
           height="2.7608147"
           width="2.6366582"
           style="fill-rule:evenodd;stroke-width:1pt;marker-end:none" />
        <rect
           id="rect3478"
           transform="matrix(0.671205,-0.741272,0.790802,0.612072,0,0)"
           y="-7.9629307"
           x="4.9587269"
           height="2.8614161"
           width="2.7327356"
           style="fill-rule:evenodd;stroke-width:1pt;marker-end:none" />
        <circle
           id="path3480"
           transform="matrix(0,-1.109517,1.109517,0,25.96648,19.71619)"
           style="fill:#ff0000;fill-opacity:0.75;fill-rule:evenodd;stroke:#000000;stroke-width:1pt;marker-start:none;marker-end:none"
           cx="16.172634"
           cy="-28.685045"
           r="0.60731727" />
        <circle
           id="path3482"
           transform="matrix(0,-1.109517,1.109517,0,26.8245,16.99126)"
           style="fill:#ff0000;fill-opacity:0.75;fill-rule:evenodd;stroke:#000000;stroke-width:1pt;marker-start:none;marker-end:none"
           cx="16.172634"
           cy="-28.685045"
           r="0.60731727" />
      </g>
    </marker>
    <marker
       orient="auto"
       refY="0"
       refX="0"
       id="SemiCircleOut"
       style="overflow:visible">
      <path
         id="path3513"
         d="m -2.5,-0.80913858 c 0,2.75999998 -2.24,4.99999998 -5,4.99999998 v -10 c 2.76,0 5,2.24 5,5.00000002 z"
         style="fill-rule:evenodd;stroke:#000000;stroke-width:1pt;marker-start:none;marker-end:none"
         transform="matrix(0.6,0,0,0.6,4.2752958,0.4580676)" />
    </marker>
    <marker
       style="overflow:visible"
       id="InfiniteLineEnd"
       refX="0"
       refY="0"
       orient="auto">
      <g
         id="g3453">
        <circle
           id="circle3455"
           r="0.80000001"
           cy="0"
           cx="3" />
        <circle
           id="circle3457"
           r="0.80000001"
           cy="0"
           cx="6.5" />
        <circle
           id="circle3459"
           r="0.80000001"
           cy="0"
           cx="10" />
      </g>
    </marker>
    <clipPath
       clipPathUnits="userSpaceOnUse"
       id="clipPath2108">
      <ellipse
         cy="13.694487"
         cx="-0.93807042"
         id="ellipse2110"
         style="display:none;fill:#000000;fill-opacity:1;stroke-width:0.0649594"
         rx="6.411417"
         ry="6.4152684"
         d="M 5.4733466,13.694487 A 6.411417,6.4152684 0 0 1 -0.93807042,20.109755 6.411417,6.4152684 0 0 1 -7.3494874,13.694487 6.411417,6.4152684 0 0 1 -0.93807042,7.2792182 6.411417,6.4152684 0 0 1 5.4733466,13.694487 Z" />
      <path
         id="lpe_path-effect2208"
         style="fill:#000000;fill-opacity:1;stroke-width:0.0649594"
         class="powerclip"
         d="M -5.9384741,7.8672504 H 34.333663 V 19.15225 H -5.9384741 Z M 5.4733466,13.694487 A 6.411417,6.4152684 0 0 0 -0.93807042,7.2792182 6.411417,6.4152684 0 0 0 -7.3494874,13.694487 6.411417,6.4152684 0 0 0 -0.93807042,20.109755 6.411417,6.4152684 0 0 0 5.4733466,13.694487 Z" />
    </clipPath>
    <clipPath
       clipPathUnits="userSpaceOnUse"
       id="clipPath2112">
      <ellipse
         cy="13.694487"
         cx="-0.93807042"
         id="ellipse2114"
         style="display:none;fill:#000000;fill-opacity:1;stroke-width:0.0649594"
         rx="6.411417"
         ry="6.4152684"
         d="M 5.4733466,13.694487 A 6.411417,6.4152684 0 0 1 -0.93807042,20.109755 6.411417,6.4152684 0 0 1 -7.3494874,13.694487 6.411417,6.4152684 0 0 1 -0.93807042,7.2792182 6.411417,6.4152684 0 0 1 5.4733466,13.694487 Z" />
      <path
         id="lpe_path-effect2212"
         style="fill:#000000;fill-opacity:1;stroke-width:0.0649594"
         class="powerclip"
         d="M -6.2811885,7.529452 H 8.1740836 V 31.720876 H -6.2811885 Z M 5.4733466,13.694487 A 6.411417,6.4152684 0 0 0 -0.93807042,7.2792182 6.411417,6.4152684 0 0 0 -7.3494874,13.694487 6.411417,6.4152684 0 0 0 -0.93807042,20.109755 6.411417,6.4152684 0 0 0 5.4733466,13.694487 Z" />
    </clipPath>
    <clipPath
       clipPathUnits="userSpaceOnUse"
       id="clipPath2116">
      <ellipse
         cy="13.694487"
         cx="-0.93807042"
         id="ellipse2118"
         style="display:none;fill:#000000;fill-opacity:1;stroke-width:0.0649594"
         rx="6.411417"
         ry="6.4152684"
         d="M 5.4733466,13.694487 A 6.411417,6.4152684 0 0 1 -0.93807042,20.109755 6.411417,6.4152684 0 0 1 -7.3494874,13.694487 6.411417,6.4152684 0 0 1 -0.93807042,7.2792182 6.411417,6.4152684 0 0 1 5.4733466,13.694487 Z" />
      <path
         id="lpe_path-effect2216"
         style="fill:#000000;fill-opacity:1;stroke-width:0.0649594"
         class="powerclip"
         d="M -6.8705536,7.708164 H 13.880191 V 28.653518 H -6.8705536 Z M 5.4733466,13.694487 A 6.411417,6.4152684 0 0 0 -0.93807042,7.2792182 6.411417,6.4152684 0 0 0 -7.3494874,13.694487 6.411417,6.4152684 0 0 0 -0.93807042,20.109755 6.411417,6.4152684 0 0 0 5.4733466,13.694487 Z" />
    </clipPath>
    <clipPath
       clipPathUnits="userSpaceOnUse"
       id="clipPath2120">
      <ellipse
         cy="13.694487"
         cx="-0.93807042"
         id="ellipse2122"
         style="display:none;fill:#000000;fill-opacity:1;stroke-width:0.0649594"
         rx="6.411417"
         ry="6.4152684"
         d="M 5.4733466,13.694487 A 6.411417,6.4152684 0 0 1 -0.93807042,20.109755 6.411417,6.4152684 0 0 1 -7.3494874,13.694487 6.411417,6.4152684 0 0 1 -0.93807042,7.2792182 6.411417,6.4152684 0 0 1 5.4733466,13.694487 Z" />
      <path
         id="lpe_path-effect2220"
         style="fill:#000000;fill-opacity:1;stroke-width:0.0649594"
         class="powerclip"
         d="M -7.1759864,7.966563 H 16.964283 V 22.627256 H -7.1759864 Z m 12.649333,5.727924 A 6.411417,6.4152684 0 0 0 -0.93807042,7.2792182 6.411417,6.4152684 0 0 0 -7.3494874,13.694487 6.411417,6.4152684 0 0 0 -0.93807042,20.109755 6.411417,6.4152684 0 0 0 5.4733466,13.694487 Z" />
    </clipPath>
    <clipPath
       clipPathUnits="userSpaceOnUse"
       id="clipPath2124">
      <ellipse
         cy="13.694487"
         cx="-0.93807042"
         id="ellipse2126"
         style="display:none;fill:#000000;fill-opacity:1;stroke-width:0.0649594"
         rx="6.411417"
         ry="6.4152684"
         d="M 5.4733466,13.694487 A 6.411417,6.4152684 0 0 1 -0.93807042,20.109755 6.411417,6.4152684 0 0 1 -7.3494874,13.694487 6.411417,6.4152684 0 0 1 -0.93807042,7.2792182 6.411417,6.4152684 0 0 1 5.4733466,13.694487 Z" />
      <path
         id="lpe_path-effect2224"
         style="fill:#000000;fill-opacity:1;stroke-width:0.0649594"
         class="powerclip"
         d="M -7.4166781,4.322351 H 16.670768 V 19.23677 H -7.4166781 Z M 5.4733466,13.694487 A 6.411417,6.4152684 0 0 0 -0.93807042,7.2792182 6.411417,6.4152684 0 0 0 -7.3494874,13.694487 6.411417,6.4152684 0 0 0 -0.93807042,20.109755 6.411417,6.4152684 0 0 0 5.4733466,13.694487 Z" />
    </clipPath>
    <clipPath
       clipPathUnits="userSpaceOnUse"
       id="clipPath2128">
      <ellipse
         cy="13.694487"
         cx="-0.93807042"
         id="ellipse2130"
         style="display:none;fill:#000000;fill-opacity:1;stroke-width:0.0649594"
         rx="6.411417"
         ry="6.4152684"
         d="M 5.4733466,13.694487 A 6.411417,6.4152684 0 0 1 -0.93807042,20.109755 6.411417,6.4152684 0 0 1 -7.3494874,13.694487 6.411417,6.4152684 0 0 1 -0.93807042,7.2792182 6.411417,6.4152684 0 0 1 5.4733466,13.694487 Z" />
      <path
         id="lpe_path-effect2228"
         style="fill:#000000;fill-opacity:1;stroke-width:0.0649594"
         class="powerclip"
         d="M -6.8525478,-1.5105866 H 13.664031 V 19.657479 H -6.8525478 Z M 5.4733466,13.694487 A 6.411417,6.4152684 0 0 0 -0.93807042,7.2792182 6.411417,6.4152684 0 0 0 -7.3494874,13.694487 6.411417,6.4152684 0 0 0 -0.93807042,20.109755 6.411417,6.4152684 0 0 0 5.4733466,13.694487 Z" />
    </clipPath>
    <clipPath
       clipPathUnits="userSpaceOnUse"
       id="clipPath2132">
      <ellipse
         cy="13.694487"
         cx="-0.93807042"
         id="ellipse2134"
         style="display:none;fill:#000000;fill-opacity:1;stroke-width:0.0649594"
         rx="6.411417"
         ry="6.4152684"
         d="M 5.4733466,13.694487 A 6.411417,6.4152684 0 0 1 -0.93807042,20.109755 6.411417,6.4152684 0 0 1 -7.3494874,13.694487 6.411417,6.4152684 0 0 1 -0.93807042,7.2792182 6.411417,6.4152684 0 0 1 5.4733466,13.694487 Z" />
      <path
         id="lpe_path-effect2232"
         style="fill:#000000;fill-opacity:1;stroke-width:0.0649594"
         class="powerclip"
         d="M -6.3766062,-4.4510296 H 8.0265828 V 19.747856 H -6.3766062 Z M 5.4733466,13.694487 A 6.411417,6.4152684 0 0 0 -0.93807042,7.2792182 6.411417,6.4152684 0 0 0 -7.3494874,13.694487 6.411417,6.4152684 0 0 0 -0.93807042,20.109755 6.411417,6.4152684 0 0 0 5.4733466,13.694487 Z" />
    </clipPath>
    <clipPath
       clipPathUnits="userSpaceOnUse"
       id="clipPath2136">
      <ellipse
         cy="13.694487"
         cx="-0.93807042"
         id="ellipse2138"
         style="display:none;fill:#000000;fill-opacity:1;stroke-width:0.0649594"
         rx="6.411417"
         ry="6.4152684"
         d="M 5.4733466,13.694487 A 6.411417,6.4152684 0 0 1 -0.93807042,20.109755 6.411417,6.4152684 0 0 1 -7.3494874,13.694487 6.411417,6.4152684 0 0 1 -0.93807042,7.2792182 6.411417,6.4152684 0 0 1 5.4733466,13.694487 Z" />
      <path
         id="lpe_path-effect2236"
         style="fill:#000000;fill-opacity:1;stroke-width:0.0649594"
         class="powerclip"
         d="M -9.8638677,-4.4056139 H 4.6284398 V 19.778685 H -9.8638677 Z M 5.4733466,13.694487 A 6.411417,6.4152684 0 0 0 -0.93807042,7.2792182 6.411417,6.4152684 0 0 0 -7.3494874,13.694487 6.411417,6.4152684 0 0 0 -0.93807042,20.109755 6.411417,6.4152684 0 0 0 5.4733466,13.694487 Z" />
    </clipPath>
    <clipPath
       clipPathUnits="userSpaceOnUse"
       id="clipPath2140">
      <ellipse
         cy="13.694487"
         cx="-0.93807042"
         id="ellipse2142"
         style="display:none;fill:#000000;fill-opacity:1;stroke-width:0.0649594"
         rx="6.411417"
         ry="6.4152684"
         d="M 5.4733466,13.694487 A 6.411417,6.4152684 0 0 1 -0.93807042,20.109755 6.411417,6.4152684 0 0 1 -7.3494874,13.694487 6.411417,6.4152684 0 0 1 -0.93807042,7.2792182 6.411417,6.4152684 0 0 1 5.4733466,13.694487 Z" />
      <path
         id="lpe_path-effect2240"
         style="fill:#000000;fill-opacity:1;stroke-width:0.0649594"
         class="powerclip"
         d="M -15.40982,-1.3863321 H 5.2256609 V 19.670305 H -15.40982 Z M 5.4733466,13.694487 A 6.411417,6.4152684 0 0 0 -0.93807042,7.2792182 6.411417,6.4152684 0 0 0 -7.3494874,13.694487 6.411417,6.4152684 0 0 0 -0.93807042,20.109755 6.411417,6.4152684 0 0 0 5.4733466,13.694487 Z" />
    </clipPath>
    <clipPath
       clipPathUnits="userSpaceOnUse"
       id="clipPath2144">
      <ellipse
         cy="13.694487"
         cx="-0.93807042"
         id="ellipse2146"
         style="display:none;fill:#000000;fill-opacity:1;stroke-width:0.0649594"
         rx="6.411417"
         ry="6.4152684"
         d="M 5.4733466,13.694487 A 6.411417,6.4152684 0 0 1 -0.93807042,20.109755 6.411417,6.4152684 0 0 1 -7.3494874,13.694487 6.411417,6.4152684 0 0 1 -0.93807042,7.2792182 6.411417,6.4152684 0 0 1 5.4733466,13.694487 Z" />
      <path
         id="lpe_path-effect2244"
         style="fill:#000000;fill-opacity:1;stroke-width:0.0649594"
         class="powerclip"
         d="M -18.281336,4.3671882 H 5.7422957 V 19.53957 H -18.281336 Z M 5.4733466,13.694487 A 6.411417,6.4152684 0 0 0 -0.93807042,7.2792182 6.411417,6.4152684 0 0 0 -7.3494874,13.694487 6.411417,6.4152684 0 0 0 -0.93807042,20.109755 6.411417,6.4152684 0 0 0 5.4733466,13.694487 Z" />
    </clipPath>
    <clipPath
       clipPathUnits="userSpaceOnUse"
       id="clipPath2148">
      <ellipse
         cy="13.694487"
         cx="-0.93807042"
         id="ellipse2150"
         style="display:none;fill:#000000;fill-opacity:1;stroke-width:0.0649594"
         rx="6.411417"
         ry="6.4152684"
         d="M 5.4733466,13.694487 A 6.411417,6.4152684 0 0 1 -0.93807042,20.109755 6.411417,6.4152684 0 0 1 -7.3494874,13.694487 6.411417,6.4152684 0 0 1 -0.93807042,7.2792182 6.411417,6.4152684 0 0 1 5.4733466,13.694487 Z" />
      <path
         id="lpe_path-effect2248"
         style="fill:#000000;fill-opacity:1;stroke-width:0.0649594"
         class="powerclip"
         d="M -18.426758,8.175543 H 5.7725056 V 22.546325 H -18.426758 Z M 5.4733466,13.694487 A 6.411417,6.4152684 0 0 0 -0.93807042,7.2792182 6.411417,6.4152684 0 0 0 -7.3494874,13.694487 6.411417,6.4152684 0 0 0 -0.93807042,20.109755 6.411417,6.4152684 0 0 0 5.4733466,13.694487 Z" />
    </clipPath>
    <clipPath
       clipPathUnits="userSpaceOnUse"
       id="clipPath2152">
      <ellipse
         cy="13.694487"
         cx="-0.93807042"
         id="ellipse2154"
         style="display:none;fill:#000000;fill-opacity:1;stroke-width:0.0649594"
         rx="6.411417"
         ry="6.4152684"
         d="M 5.4733466,13.694487 A 6.411417,6.4152684 0 0 1 -0.93807042,20.109755 6.411417,6.4152684 0 0 1 -7.3494874,13.694487 6.411417,6.4152684 0 0 1 -0.93807042,7.2792182 6.411417,6.4152684 0 0 1 5.4733466,13.694487 Z" />
      <path
         id="lpe_path-effect2252"
         style="fill:#000000;fill-opacity:1;stroke-width:0.0649594"
         class="powerclip"
         d="M -15.470747,7.45569 H 5.1829137 V 28.494817 H -15.470747 Z M 5.4733466,13.694487 A 6.411417,6.4152684 0 0 0 -0.93807042,7.2792182 6.411417,6.4152684 0 0 0 -7.3494874,13.694487 6.411417,6.4152684 0 0 0 -0.93807042,20.109755 6.411417,6.4152684 0 0 0 5.4733466,13.694487 Z" />
    </clipPath>
    <clipPath
       clipPathUnits="userSpaceOnUse"
       id="clipPath2156">
      <ellipse
         cy="13.694487"
         cx="-0.93807042"
         id="ellipse2158"
         style="display:none;fill:#000000;fill-opacity:1;stroke-width:0.0649594"
         rx="6.411417"
         ry="6.4152684"
         d="M 5.4733466,13.694487 A 6.411417,6.4152684 0 0 1 -0.93807042,20.109755 6.411417,6.4152684 0 0 1 -7.3494874,13.694487 6.411417,6.4152684 0 0 1 -0.93807042,7.2792182 6.411417,6.4152684 0 0 1 5.4733466,13.694487 Z" />
      <path
         id="lpe_path-effect2256"
         style="fill:#000000;fill-opacity:1;stroke-width:0.0649594"
         class="powerclip"
         d="M -9.9032984,7.503361 H 4.5129622 V 31.699807 H -9.9032984 Z m 15.376645,6.191126 A 6.411417,6.4152684 0 0 0 -0.93807042,7.2792182 6.411417,6.4152684 0 0 0 -7.3494874,13.694487 6.411417,6.4152684 0 0 0 -0.93807042,20.109755 6.411417,6.4152684 0 0 0 5.4733466,13.694487 Z" />
    </clipPath>
    <clipPath
       clipPathUnits="userSpaceOnUse"
       id="clipPath2160">
      <ellipse
         cy="13.694487"
         cx="-0.93807042"
         id="ellipse2162"
         style="display:none;fill:#000000;fill-opacity:1;stroke-width:0.0649594"
         rx="6.411417"
         ry="6.4152684"
         d="M 5.4733466,13.694487 A 6.411417,6.4152684 0 0 1 -0.93807042,20.109755 6.411417,6.4152684 0 0 1 -7.3494874,13.694487 6.411417,6.4152684 0 0 1 -0.93807042,7.2792182 6.411417,6.4152684 0 0 1 5.4733466,13.694487 Z" />
      <path
         id="lpe_path-effect2260"
         style="fill:#000000;fill-opacity:1;stroke-width:0.0649594"
         class="powerclip"
         d="M -16.249301,8.18547 H 4.86885 V 36.260835 H -16.249301 Z M 5.4733466,13.694487 A 6.411417,6.4152684 0 0 0 -0.93807042,7.2792182 6.411417,6.4152684 0 0 0 -7.3494874,13.694487 6.411417,6.4152684 0 0 0 -0.93807042,20.109755 6.411417,6.4152684 0 0 0 5.4733466,13.694487 Z" />
    </clipPath>
    <clipPath
       clipPathUnits="userSpaceOnUse"
       id="clipPath2164">
      <ellipse
         cy="13.694487"
         cx="-0.93807042"
         id="ellipse2166"
         style="display:none;fill:#000000;fill-opacity:1;stroke-width:0.0649594"
         rx="6.411417"
         ry="6.4152684"
         d="M 5.4733466,13.694487 A 6.411417,6.4152684 0 0 1 -0.93807042,20.109755 6.411417,6.4152684 0 0 1 -7.3494874,13.694487 6.411417,6.4152684 0 0 1 -0.93807042,7.2792182 6.411417,6.4152684 0 0 1 5.4733466,13.694487 Z" />
      <path
         id="lpe_path-effect2264"
         style="fill:#000000;fill-opacity:1;stroke-width:0.0649594"
         class="powerclip"
         d="M -22.840559,7.776878 H 5.1186246 V 29.102542 H -22.840559 Z M 5.4733466,13.694487 A 6.411417,6.4152684 0 0 0 -0.93807042,7.2792182 6.411417,6.4152684 0 0 0 -7.3494874,13.694487 6.411417,6.4152684 0 0 0 -0.93807042,20.109755 6.411417,6.4152684 0 0 0 5.4733466,13.694487 Z" />
    </clipPath>
    <clipPath
       clipPathUnits="userSpaceOnUse"
       id="clipPath2168">
      <ellipse
         cy="13.694487"
         cx="-0.93807042"
         id="ellipse2170"
         style="display:none;fill:#000000;fill-opacity:1;stroke-width:0.0649594"
         rx="6.411417"
         ry="6.4152684"
         d="M 5.4733466,13.694487 A 6.411417,6.4152684 0 0 1 -0.93807042,20.109755 6.411417,6.4152684 0 0 1 -7.3494874,13.694487 6.411417,6.4152684 0 0 1 -0.93807042,7.2792182 6.411417,6.4152684 0 0 1 5.4733466,13.694487 Z" />
      <path
         id="lpe_path-effect2268"
         style="fill:#000000;fill-opacity:1;stroke-width:0.0649594"
         class="powerclip"
         d="M -6.6393703,7.844167 H 21.258535 V 29.277735 H -6.6393703 Z m 12.1127169,5.85032 A 6.411417,6.4152684 0 0 0 -0.93807042,7.2792182 6.411417,6.4152684 0 0 0 -7.3494874,13.694487 6.411417,6.4152684 0 0 0 -0.93807042,20.109755 6.411417,6.4152684 0 0 0 5.4733466,13.694487 Z" />
    </clipPath>
    <clipPath
       clipPathUnits="userSpaceOnUse"
       id="clipPath2172">
      <ellipse
         cy="13.694487"
         cx="-0.93807042"
         id="ellipse2174"
         style="display:none;fill:#000000;fill-opacity:1;stroke-width:0.0649594"
         rx="6.411417"
         ry="6.4152684"
         d="M 5.4733466,13.694487 A 6.411417,6.4152684 0 0 1 -0.93807042,20.109755 6.411417,6.4152684 0 0 1 -7.3494874,13.694487 6.411417,6.4152684 0 0 1 -0.93807042,7.2792182 6.411417,6.4152684 0 0 1 5.4733466,13.694487 Z" />
      <path
         id="lpe_path-effect2272"
         style="fill:#000000;fill-opacity:1;stroke-width:0.0649594"
         class="powerclip"
         d="M -6.3872482,8.130112 H 14.575962 V 36.288356 H -6.3872482 Z M 5.4733466,13.694487 A 6.411417,6.4152684 0 0 0 -0.93807042,7.2792182 6.411417,6.4152684 0 0 0 -7.3494874,13.694487 6.411417,6.4152684 0 0 0 -0.93807042,20.109755 6.411417,6.4152684 0 0 0 5.4733466,13.694487 Z" />
    </clipPath>
    <clipPath
       clipPathUnits="userSpaceOnUse"
       id="clipPath2176">
      <ellipse
         cy="13.694487"
         cx="-0.93807042"
         id="ellipse2178"
         style="display:none;fill:#000000;fill-opacity:1;stroke-width:0.0649594"
         rx="6.411417"
         ry="6.4152684"
         d="M 5.4733466,13.694487 A 6.411417,6.4152684 0 0 1 -0.93807042,20.109755 6.411417,6.4152684 0 0 1 -7.3494874,13.694487 6.411417,6.4152684 0 0 1 -0.93807042,7.2792182 6.411417,6.4152684 0 0 1 5.4733466,13.694487 Z" />
      <path
         id="lpe_path-effect2276"
         style="fill:#000000;fill-opacity:1;stroke-width:0.0649594"
         class="powerclip"
         d="M -6.7421104,-2.2720903 H 21.176925 V 19.126924 H -6.7421104 Z M 5.4733466,13.694487 A 6.411417,6.4152684 0 0 0 -0.93807042,7.2792182 6.411417,6.4152684 0 0 0 -7.3494874,13.694487 6.411417,6.4152684 0 0 0 -0.93807042,20.109755 6.411417,6.4152684 0 0 0 5.4733466,13.694487 Z" />
    </clipPath>
    <clipPath
       clipPathUnits="userSpaceOnUse"
       id="clipPath2180">
      <ellipse
         cy="13.694487"
         cx="-0.93807042"
         id="ellipse2182"
         style="display:none;fill:#000000;fill-opacity:1;stroke-width:0.0649594"
         rx="6.411417"
         ry="6.4152684"
         d="M 5.4733466,13.694487 A 6.411417,6.4152684 0 0 1 -0.93807042,20.109755 6.411417,6.4152684 0 0 1 -7.3494874,13.694487 6.411417,6.4152684 0 0 1 -0.93807042,7.2792182 6.411417,6.4152684 0 0 1 5.4733466,13.694487 Z" />
      <path
         id="lpe_path-effect2280"
         style="fill:#000000;fill-opacity:1;stroke-width:0.0649594"
         class="powerclip"
         d="M -6.5169838,-9.0660326 H 14.49307 V 19.065814 H -6.5169838 Z M 5.4733466,13.694487 A 6.411417,6.4152684 0 0 0 -0.93807042,7.2792182 6.411417,6.4152684 0 0 0 -7.3494874,13.694487 6.411417,6.4152684 0 0 0 -0.93807042,20.109755 6.411417,6.4152684 0 0 0 5.4733466,13.694487 Z" />
    </clipPath>
    <clipPath
       clipPathUnits="userSpaceOnUse"
       id="clipPath2184">
      <ellipse
         cy="13.694487"
         cx="-0.93807042"
         id="ellipse2186"
         style="display:none;fill:#000000;fill-opacity:1;stroke-width:0.0649594"
         rx="6.411417"
         ry="6.4152684"
         d="M 5.4733466,13.694487 A 6.411417,6.4152684 0 0 1 -0.93807042,20.109755 6.411417,6.4152684 0 0 1 -7.3494874,13.694487 6.411417,6.4152684 0 0 1 -0.93807042,7.2792182 6.411417,6.4152684 0 0 1 5.4733466,13.694487 Z" />
      <path
         id="lpe_path-effect2284"
         style="fill:#000000;fill-opacity:1;stroke-width:0.0649594"
         class="powerclip"
         d="M -22.762689,-2.1154305 H 5.0995518 V 19.382254 H -22.762689 Z M 5.4733466,13.694487 A 6.411417,6.4152684 0 0 0 -0.93807042,7.2792182 6.411417,6.4152684 0 0 0 -7.3494874,13.694487 6.411417,6.4152684 0 0 0 -0.93807042,20.109755 6.411417,6.4152684 0 0 0 5.4733466,13.694487 Z" />
    </clipPath>
    <clipPath
       clipPathUnits="userSpaceOnUse"
       id="clipPath2188">
      <ellipse
         cy="13.694487"
         cx="-0.93807042"
         id="ellipse2190"
         style="display:none;fill:#000000;fill-opacity:1;stroke-width:0.0649594"
         rx="6.411417"
         ry="6.4152684"
         d="M 5.4733466,13.694487 A 6.411417,6.4152684 0 0 1 -0.93807042,20.109755 6.411417,6.4152684 0 0 1 -7.3494874,13.694487 6.411417,6.4152684 0 0 1 -0.93807042,7.2792182 6.411417,6.4152684 0 0 1 5.4733466,13.694487 Z" />
      <path
         id="lpe_path-effect2288"
         style="fill:#000000;fill-opacity:1;stroke-width:0.0649594"
         class="powerclip"
         d="M -16.298956,-9.0160096 H 4.8743318 V 19.03233 H -16.298956 Z M 5.4733466,13.694487 A 6.411417,6.4152684 0 0 0 -0.93807042,7.2792182 6.411417,6.4152684 0 0 0 -7.3494874,13.694487 6.411417,6.4152684 0 0 0 -0.93807042,20.109755 6.411417,6.4152684 0 0 0 5.4733466,13.694487 Z" />
    </clipPath>
    <clipPath
       clipPathUnits="userSpaceOnUse"
       id="clipPath2192">
      <ellipse
         cy="13.694487"
         cx="-0.93807042"
         id="ellipse2194"
         style="display:none;fill:#000000;fill-opacity:1;stroke-width:0.0649594"
         rx="6.411417"
         ry="6.4152684"
         d="M 5.4733466,13.694487 A 6.411417,6.4152684 0 0 1 -0.93807042,20.109755 6.411417,6.4152684 0 0 1 -7.3494874,13.694487 6.411417,6.4152684 0 0 1 -0.93807042,7.2792182 6.411417,6.4152684 0 0 1 5.4733466,13.694487 Z" />
      <path
         id="lpe_path-effect2292"
         style="fill:#000000;fill-opacity:1;stroke-width:0.0649594"
         class="powerclip"
         d="M -6.8928956,8.482638 H 5.039999 V 38.558032 H -6.8928956 Z M 5.4733466,13.694487 A 6.411417,6.4152684 0 0 0 -0.93807042,7.2792182 6.411417,6.4152684 0 0 0 -7.3494874,13.694487 6.411417,6.4152684 0 0 0 -0.93807042,20.109755 6.411417,6.4152684 0 0 0 5.4733466,13.694487 Z" />
    </clipPath>
    <clipPath
       clipPathUnits="userSpaceOnUse"
       id="clipPath2196">
      <ellipse
         cy="13.694487"
         cx="-0.93807042"
         id="ellipse2198"
         style="display:none;fill:#000000;fill-opacity:1;stroke-width:0.0649594"
         rx="6.411417"
         ry="6.4152684"
         d="M 5.4733466,13.694487 A 6.411417,6.4152684 0 0 1 -0.93807042,20.109755 6.411417,6.4152684 0 0 1 -7.3494874,13.694487 6.411417,6.4152684 0 0 1 -0.93807042,7.2792182 6.411417,6.4152684 0 0 1 5.4733466,13.694487 Z" />
      <path
         id="lpe_path-effect2296"
         style="fill:#000000;fill-opacity:1;stroke-width:0.0649594"
         class="powerclip"
         d="M -24.979994,7.5558327 H 5.0834132 V 19.489824 H -24.979994 Z M 5.4733466,13.694487 A 6.411417,6.4152684 0 0 0 -0.93807042,7.2792182 6.411417,6.4152684 0 0 0 -7.3494874,13.694487 6.411417,6.4152684 0 0 0 -0.93807042,20.109755 6.411417,6.4152684 0 0 0 5.4733466,13.694487 Z" />
    </clipPath>
    <clipPath
       clipPathUnits="userSpaceOnUse"
       id="clipPath2200">
      <ellipse
         cy="13.694487"
         cx="-0.93807042"
         id="ellipse2202"
         style="display:none;fill:#000000;fill-opacity:1;stroke-width:0.0649594"
         rx="6.411417"
         ry="6.4152684"
         d="M 5.4733466,13.694487 A 6.411417,6.4152684 0 0 1 -0.93807042,20.109755 6.411417,6.4152684 0 0 1 -7.3494874,13.694487 6.411417,6.4152684 0 0 1 -0.93807042,7.2792182 6.411417,6.4152684 0 0 1 5.4733466,13.694487 Z" />
      <path
         id="lpe_path-effect2300"
         style="fill:#000000;fill-opacity:1;stroke-width:0.0649594"
         class="powerclip"
         d="M -6.8477742,-11.441966 H 5.0851204 V 18.633427 H -6.8477742 Z M 5.4733466,13.694487 A 6.411417,6.4152684 0 0 0 -0.93807042,7.2792182 6.411417,6.4152684 0 0 0 -7.3494874,13.694487 6.411417,6.4152684 0 0 0 -0.93807042,20.109755 6.411417,6.4152684 0 0 0 5.4733466,13.694487 Z" />
    </clipPath>
    <clipPath
       clipPathUnits="userSpaceOnUse"
       id="clipPath2204">
      <ellipse
         cy="13.694487"
         cx="-0.93807042"
         id="ellipse2206"
         style="display:none;fill:#000000;fill-opacity:1;stroke-width:0.0649594"
         rx="6.411417"
         ry="6.4152684"
         d="M 5.4733466,13.694487 A 6.411417,6.4152684 0 0 1 -0.93807042,20.109755 6.411417,6.4152684 0 0 1 -7.3494874,13.694487 6.411417,6.4152684 0 0 1 -0.93807042,7.2792182 6.411417,6.4152684 0 0 1 5.4733466,13.694487 Z" />
      <path
         id="lpe_path-effect2304"
         style="fill:#000000;fill-opacity:1;stroke-width:0.0649594"
         class="powerclip"
         d="M -10.876594,3.7529964 H 9.0004533 V 23.635979 H -10.876594 Z M 5.4733466,13.694487 A 6.411417,6.4152684 0 0 0 -0.93807042,7.2792182 6.411417,6.4152684 0 0 0 -7.3494874,13.694487 6.411417,6.4152684 0 0 0 -0.93807042,20.109755 6.411417,6.4152684 0 0 0 5.4733466,13.694487 Z" />
    </clipPath>
  </defs>
  <g
     id="layer4"
     transform="translate(30.605816,16.441967)">
    <rect
       style="opacity:1;fill:none;fill-opacity:1;stroke:none;stroke-width:1;stroke-linecap:round;stroke-linejoin:miter;stroke-miterlimit:13.8;stroke-dasharray:none;stroke-opacity:1"
       id="rect3396"
       width="720.8197"
       height="684.93701"
       x="-30.605816"
       y="-16.441967" />
  </g>
  <g
     id="layer1"
     style="display:inline"
     transform="translate(30.605816,16.441967)" />
  <g
     id="layer2"
     style="display:inline"
     transform="translate(30.605816,16.441967)">
    <g
       id="g2333"
       transform="matrix(0.73316421,0,0,0.73316468,-17.079058,-9.4730296)"
       style="stroke-width:1.36395">
      <path
         style="fill:#000000;fill-opacity:1;stroke-width:0.0886014"
         id="inner_circle_cutout"
         clip-path="url(#clipPath2204)"
         inkscape:path-effect="#path-effect2304"
         sodipodi:type="arc"
         sodipodi:cx="-0.93807048"
         sodipodi:cy="13.694488"
         sodipodi:rx="4.9385238"
         sodipodi:ry="4.9414911"
         d="M 4.0004533,13.694488 A 4.9385238,4.9414911 0 0 1 -0.93807048,18.635979 4.9385238,4.9414911 0 0 1 -5.8765942,13.694488 4.9385238,4.9414911 0 0 1 -0.93807048,8.7529964 4.9385238,4.9414911 0 0 1 4.0004533,13.694488 Z"
         transform="rotate(45,4.6768343,13.558033)" />
      <path
         style="fill:#000000;fill-opacity:1;fill-rule:evenodd;stroke:#000000;stroke-width:0.15106;stroke-linecap:round;stroke-linejoin:miter;stroke-miterlimit:13.8;stroke-dasharray:none;stroke-opacity:1"
         d="M -0.57825352,13.578051 C -0.42668418,8.5868978 0.02803717,-6.3865904 0.02803717,-6.3865904 H -1.7908483 c 0,0 0.4133879,14.9734882 0.5511794,19.9646414"
         id="path6145"
         clip-path="url(#clipPath2200)"
         inkscape:path-effect="#path-effect2300"
         inkscape:original-d="M -0.57825352,13.578051 C -0.42668418,8.5868978 0.02803717,-6.3865904 0.02803717,-6.3865904 H -1.7908483 c 0,0 0.4133879,14.9734882 0.5511794,19.9646414"
         transform="rotate(45,4.6768343,13.558033)" />
      <path
         style="fill:#000000;fill-opacity:1;fill-rule:evenodd;stroke:#000000;stroke-width:0.15106;stroke-linecap:round;stroke-linejoin:miter;stroke-miterlimit:13.8;stroke-dasharray:none;stroke-opacity:1"
         d="M 0.02803717,13.219573 C -4.9601199,13.067912 -19.924618,12.612918 -19.924618,12.612918 v 1.819978 c 0,0 14.9644981,-0.413623 19.95265517,-0.551511"
         id="path7118"
         clip-path="url(#clipPath2196)"
         inkscape:path-effect="#path-effect2296"
         inkscape:original-d="M 0.02803717,13.219573 C -4.9601199,13.067912 -19.924618,12.612918 -19.924618,12.612918 v 1.819978 c 0,0 14.9644981,-0.413623 19.95265517,-0.551511"
         transform="rotate(45,4.6768343,13.558033)" />
      <path
         style="fill:#000000;fill-opacity:1;fill-rule:evenodd;stroke:#000000;stroke-width:0.15106;stroke-linecap:round;stroke-linejoin:miter;stroke-miterlimit:13.8;stroke-dasharray:none;stroke-opacity:1"
         d="m -0.62338821,13.538014 c 0.15158267,4.991154 0.60630403,19.964642 0.60630403,19.964642 H -1.8359697 c 0,0 0.4133746,-14.973488 0.5511795,-19.964642"
         id="path7120"
         clip-path="url(#clipPath2192)"
         inkscape:path-effect="#path-effect2292"
         inkscape:original-d="m -0.62338821,13.538014 c 0.15158267,4.991154 0.60630403,19.964642 0.60630403,19.964642 H -1.8359697 c 0,0 0.4133746,-14.973488 0.5511795,-19.964642"
         transform="rotate(45,4.6768343,13.558033)" />
      <path
         style="fill:#000000;fill-opacity:1;fill-rule:evenodd;stroke:#000000;stroke-width:0.15106;stroke-linecap:round;stroke-linejoin:miter;stroke-miterlimit:13.8;stroke-dasharray:none;stroke-opacity:1"
         d="M -0.18104422,13.645554 C -2.547668,9.2492977 -9.6475524,-3.9394716 -9.6475524,-3.9394716 l -1.5744196,0.9113503 c 0,0 7.8513028,12.7538067 10.46840808,17.0050753"
         id="path7122"
         clip-path="url(#clipPath2188)"
         inkscape:path-effect="#path-effect2288"
         inkscape:original-d="M -0.18104422,13.645554 C -2.547668,9.2492977 -9.6475524,-3.9394716 -9.6475524,-3.9394716 l -1.5744196,0.9113503 c 0,0 7.8513028,12.7538067 10.46840808,17.0050753"
         transform="rotate(45,4.6768343,13.558033)" />
      <path
         style="fill:#000000;fill-opacity:1;fill-rule:evenodd;stroke:#000000;stroke-width:0.15106;stroke-linecap:round;stroke-linejoin:miter;stroke-miterlimit:13.8;stroke-dasharray:none;stroke-opacity:1"
         d="M 0.04417576,13.759486 C -4.1542709,11.060134 -16.749612,2.9620373 -16.749612,2.9620373 l -0.936318,1.5603244 c 0,0 13.0422198,7.3533803 17.38963493,9.8045163"
         id="path7124"
         clip-path="url(#clipPath2184)"
         inkscape:path-effect="#path-effect2284"
         inkscape:original-d="M 0.04417576,13.759486 C -4.1542709,11.060134 -16.749612,2.9620373 -16.749612,2.9620373 l -0.936318,1.5603244 c 0,0 13.0422198,7.3533803 17.38963493,9.8045163"
         transform="rotate(45,4.6768343,13.558033)" />
      <path
         style="fill:#000000;fill-opacity:1;fill-rule:evenodd;stroke:#000000;stroke-width:0.15106;stroke-linecap:round;stroke-linejoin:miter;stroke-miterlimit:13.8;stroke-dasharray:none;stroke-opacity:1"
         d="M -0.88496675,14.010438 C 1.6903249,9.7332123 9.4162,-3.0984532 9.4162,-3.0984532 L 7.830417,-3.9898517 c 0,0 -6.9690286,13.2570994 -9.2920248,17.6761367"
         id="path7126"
         clip-path="url(#clipPath2180)"
         inkscape:path-effect="#path-effect2280"
         inkscape:original-d="M -0.88496675,14.010438 C 1.6903249,9.7332123 9.4162,-3.0984532 9.4162,-3.0984532 L 7.830417,-3.9898517 c 0,0 -6.9690286,13.2570994 -9.2920248,17.6761367"
         transform="rotate(45,4.6768343,13.558033)" />
      <path
         style="fill:#000000;fill-opacity:1;fill-rule:evenodd;stroke:#000000;stroke-width:0.15106;stroke-linecap:round;stroke-linejoin:miter;stroke-miterlimit:13.8;stroke-dasharray:none;stroke-opacity:1"
         d="M -1.3480242,14.071548 C 3.0140225,11.645769 16.100148,4.3684058 16.100148,4.3684058 l -0.93149,-1.5632204 c 0,0 -12.6415407,8.0234406 -16.8553924,10.6979296"
         id="path7128"
         clip-path="url(#clipPath2176)"
         inkscape:path-effect="#path-effect2276"
         inkscape:original-d="M -1.3480242,14.071548 C 3.0140225,11.645769 16.100148,4.3684058 16.100148,4.3684058 l -0.93149,-1.5632204 c 0,0 -12.6415407,8.0234406 -16.8553924,10.6979296"
         transform="rotate(45,4.6768343,13.558033)" />
      <path
         style="fill:#000000;fill-opacity:1;fill-rule:evenodd;stroke:#000000;stroke-width:0.15106;stroke-linecap:round;stroke-linejoin:miter;stroke-miterlimit:13.8;stroke-dasharray:none;stroke-opacity:1"
         d="m -1.3318722,13.509681 c 2.3113391,4.425604 9.2453829,17.702415 9.2453829,17.702415 L 9.499227,30.320577 c 0,0 -7.6908636,-12.85131 -10.25447147,-17.135089"
         id="path7130"
         clip-path="url(#clipPath2172)"
         inkscape:path-effect="#path-effect2272"
         inkscape:original-d="m -1.3318722,13.509681 c 2.3113391,4.425604 9.2453829,17.702415 9.2453829,17.702415 L 9.499227,30.320577 c 0,0 -7.6908636,-12.85131 -10.25447147,-17.135089"
         transform="rotate(45,4.6768343,13.558033)" />
      <path
         style="fill:#000000;fill-opacity:1;fill-rule:evenodd;stroke:#000000;stroke-width:0.15106;stroke-linecap:round;stroke-linejoin:miter;stroke-miterlimit:13.8;stroke-dasharray:none;stroke-opacity:1"
         d="M -1.5839943,13.468256 C 2.6249092,16.151273 15.251592,24.200338 15.251592,24.200338 l 0.930263,-1.563941 c 0,0 -13.0706809,-7.30264 -17.4275792,-9.736854"
         id="path7132"
         clip-path="url(#clipPath2168)"
         inkscape:path-effect="#path-effect2268"
         inkscape:original-d="M -1.5839943,13.468256 C 2.6249092,16.151273 15.251592,24.200338 15.251592,24.200338 l 0.930263,-1.563941 c 0,0 -13.0706809,-7.30264 -17.4275792,-9.736854"
         transform="rotate(45,4.6768343,13.558033)" />
      <path
         style="fill:#000000;fill-opacity:1;fill-rule:evenodd;stroke:#000000;stroke-width:0.15106;stroke-linecap:round;stroke-linejoin:miter;stroke-miterlimit:13.8;stroke-dasharray:none;stroke-opacity:1"
         d="M -0.27296748,12.832254 C -4.6456842,15.238695 -17.763875,22.458032 -17.763875,22.458032 l 0.924554,1.567317 c 0,0 12.6769274,-7.967362 16.90256963,-10.623154"
         id="path7134"
         clip-path="url(#clipPath2164)"
         inkscape:path-effect="#path-effect2264"
         inkscape:original-d="M -0.27296748,12.832254 C -4.6456842,15.238695 -17.763875,22.458032 -17.763875,22.458032 l 0.924554,1.567317 c 0,0 12.6769274,-7.967362 16.90256963,-10.623154"
         transform="rotate(45,4.6768343,13.558033)" />
      <path
         style="fill:#000000;fill-opacity:1;fill-rule:evenodd;stroke:#000000;stroke-width:0.15106;stroke-linecap:round;stroke-linejoin:miter;stroke-miterlimit:13.8;stroke-dasharray:none;stroke-opacity:1"
         d="M -0.76108637,13.240846 C -3.3638803,17.50135 -11.172302,30.282889 -11.172302,30.282889 l 1.5800076,0.901621 c 0,0 7.0543229,-13.211857 9.40576839,-17.615814"
         id="path7136"
         clip-path="url(#clipPath2160)"
         inkscape:path-effect="#path-effect2260"
         inkscape:original-d="M -0.76108637,13.240846 C -3.3638803,17.50135 -11.172302,30.282889 -11.172302,30.282889 l 1.5800076,0.901621 c 0,0 7.0543229,-13.211857 9.40576839,-17.615814"
         transform="rotate(45,4.6768343,13.558033)" />
      <path
         style="fill:#000000;fill-opacity:1;fill-rule:evenodd;stroke:#000000;stroke-width:0.10835;stroke-linecap:round;stroke-linejoin:miter;stroke-miterlimit:13.8;stroke-dasharray:none;stroke-opacity:1"
         d="M -0.98721337,12.54308 C -1.9539147,15.991619 -4.8540054,26.33721 -4.8540054,26.33721 l 1.2662656,0.314211 c 0,0 2.2957472,-10.495557 3.06098304,-13.994075"
         id="path7140"
         clip-path="url(#clipPath2156)"
         inkscape:path-effect="#path-effect2256"
         inkscape:original-d="M -0.98721337,12.54308 C -1.9539147,15.991619 -4.8540054,26.33721 -4.8540054,26.33721 l 1.2662656,0.314211 c 0,0 2.2957472,-10.495557 3.06098304,-13.994075"
         transform="rotate(45,4.6768343,13.558033)" />
      <path
         style="fill:#000000;fill-opacity:1;fill-rule:evenodd;stroke:#000000;stroke-width:0.10835;stroke-linecap:round;stroke-linejoin:miter;stroke-miterlimit:13.8;stroke-dasharray:none;stroke-opacity:1"
         d="M -0.19938353,12.495409 C -2.7529615,15.005253 -10.413722,22.534823 -10.413722,22.534823 l 0.9420668,0.903049 c 0,0 7.211134,-7.960556 9.61484986,-10.614079"
         id="path7142"
         clip-path="url(#clipPath2152)"
         inkscape:path-effect="#path-effect2252"
         inkscape:original-d="M -0.19938353,12.495409 C -2.7529615,15.005253 -10.413722,22.534823 -10.413722,22.534823 l 0.9420668,0.903049 c 0,0 7.211134,-7.960556 9.61484986,-10.614079"
         transform="rotate(45,4.6768343,13.558033)" />
      <path
         style="fill:#000000;fill-opacity:1;fill-rule:evenodd;stroke:#000000;stroke-width:0.10835;stroke-linecap:round;stroke-linejoin:miter;stroke-miterlimit:13.8;stroke-dasharray:none;stroke-opacity:1"
         d="M 0.6189095,13.215262 C -2.880403,13.96892 -13.37838,16.229906 -13.37838,16.229906 l 0.313128,1.26724 c 0,0 10.348529,-2.8658 13.7980386,-3.821071"
         id="path7144"
         clip-path="url(#clipPath2148)"
         inkscape:path-effect="#path-effect2248"
         inkscape:original-d="M 0.6189095,13.215262 C -2.880403,13.96892 -13.37838,16.229906 -13.37838,16.229906 l 0.313128,1.26724 c 0,0 10.348529,-2.8658 13.7980386,-3.821071"
         transform="rotate(45,4.6768343,13.558033)" />
      <path
         style="fill:#000000;fill-opacity:1;fill-rule:evenodd;stroke:#000000;stroke-width:0.10835;stroke-linecap:round;stroke-linejoin:miter;stroke-miterlimit:13.8;stroke-dasharray:none;stroke-opacity:1"
         d="M 0.7025767,14.046151 C -2.684966,12.88912 -12.847607,9.4180139 -12.847607,9.4180139 l -0.383765,1.2476481 c 0,0 10.345794,2.875635 13.7943967,3.834189"
         id="path7146"
         clip-path="url(#clipPath2144)"
         inkscape:path-effect="#path-effect2244"
         inkscape:original-d="M 0.7025767,14.046151 C -2.684966,12.88912 -12.847607,9.4180139 -12.847607,9.4180139 l -0.383765,1.2476481 c 0,0 10.345794,2.875635 13.7943967,3.834189"
         transform="rotate(45,4.6768343,13.558033)" />
      <path
         style="fill:#000000;fill-opacity:1;fill-rule:evenodd;stroke:#000000;stroke-width:0.10835;stroke-linecap:round;stroke-linejoin:miter;stroke-miterlimit:13.8;stroke-dasharray:none;stroke-opacity:1"
         d="M 0.1859419,14.301828 C -2.2134925,11.644048 -9.411769,3.6706934 -9.411769,3.6706934 l -0.941106,0.9040634 c 0,0 7.647449,7.5418752 10.19659884,10.0558292"
         id="path7148"
         clip-path="url(#clipPath2140)"
         inkscape:path-effect="#path-effect2240"
         inkscape:original-d="M 0.1859419,14.301828 C -2.2134925,11.644048 -9.411769,3.6706934 -9.411769,3.6706934 l -0.941106,0.9040634 c 0,0 7.647449,7.5418752 10.19659884,10.0558292"
         transform="rotate(45,4.6768343,13.558033)" />
      <path
         style="fill:#000000;fill-opacity:1;fill-rule:evenodd;stroke:#000000;stroke-width:0.10835;stroke-linecap:round;stroke-linejoin:miter;stroke-miterlimit:13.8;stroke-dasharray:none;stroke-opacity:1"
         d="M -0.41127917,14.620857 C -1.1961747,11.126408 -3.5508612,0.64305048 -3.5508612,0.64305048 l -1.2635846,0.32479401 c 0,0 2.9577627,10.32833451 3.94368367,13.77112151"
         id="path7150"
         clip-path="url(#clipPath2136)"
         inkscape:path-effect="#path-effect2236"
         inkscape:original-d="M -0.41127917,14.620857 C -1.1961747,11.126408 -3.5508612,0.64305048 -3.5508612,0.64305048 l -1.2635846,0.32479401 c 0,0 2.9577627,10.32833451 3.94368367,13.77112151"
         transform="rotate(45,4.6768343,13.558033)" />
      <path
         style="fill:#000000;fill-opacity:1;fill-rule:evenodd;stroke:#000000;stroke-width:0.10835;stroke-linecap:round;stroke-linejoin:miter;stroke-miterlimit:13.8;stroke-dasharray:none;stroke-opacity:1"
         d="M -0.8763106,14.708137 C 0.0870964,11.258691 2.9773172,0.91033792 2.9773172,0.91033792 L 1.7107583,0.59732816 c 0,0 -2.28573075,10.49774484 -3.0476455,13.99699684"
         id="path7152"
         clip-path="url(#clipPath2132)"
         inkscape:path-effect="#path-effect2232"
         inkscape:original-d="M -0.8763106,14.708137 C 0.0870964,11.258691 2.9773172,0.91033792 2.9773172,0.91033792 L 1.7107583,0.59732816 c 0,0 -2.28573075,10.49774484 -3.0476455,13.99699684"
         transform="rotate(45,4.6768343,13.558033)" />
      <path
         style="fill:#000000;fill-opacity:1;fill-rule:evenodd;stroke:#000000;stroke-width:0.10835;stroke-linecap:round;stroke-linejoin:miter;stroke-miterlimit:13.8;stroke-dasharray:none;stroke-opacity:1"
         d="M -1.4656891,14.61776 C 1.0524773,12.072337 8.6070165,4.4360818 8.6070165,4.4360818 L 7.6523857,3.5463249 c 0,0 -7.0989108,8.0609151 -9.4652145,10.7478831"
         id="path7154"
         clip-path="url(#clipPath2128)"
         inkscape:path-effect="#path-effect2228"
         inkscape:original-d="M -1.4656891,14.61776 C 1.0524773,12.072337 8.6070165,4.4360818 8.6070165,4.4360818 L 7.6523857,3.5463249 c 0,0 -7.0989108,8.0609151 -9.4652145,10.7478831"
         transform="rotate(45,4.6768343,13.558033)" />
      <path
         style="fill:#000000;fill-opacity:1;fill-rule:evenodd;stroke:#000000;stroke-width:0.10835;stroke-linecap:round;stroke-linejoin:miter;stroke-miterlimit:13.8;stroke-dasharray:none;stroke-opacity:1"
         d="M -2.2448227,14.197051 C 1.2216791,13.304385 11.621224,10.626385 11.621224,10.626385 L 11.257839,9.3726385 c 0,0 -10.2261018,3.2763795 -13.6347981,4.3684975"
         id="path7156"
         clip-path="url(#clipPath2124)"
         inkscape:path-effect="#path-effect2224"
         inkscape:original-d="M -2.2448227,14.197051 C 1.2216791,13.304385 11.621224,10.626385 11.621224,10.626385 L 11.257839,9.3726385 c 0,0 -10.2261018,3.2763795 -13.6347981,4.3684975"
         transform="rotate(45,4.6768343,13.558033)" />
      <path
         style="fill:#000000;fill-opacity:1;fill-rule:evenodd;stroke:#000000;stroke-width:0.10835;stroke-linecap:round;stroke-linejoin:miter;stroke-miterlimit:13.8;stroke-dasharray:none;stroke-opacity:1"
         d="M -2.1362674,13.464933 C 1.2925555,14.493058 11.57901,17.577447 11.57901,17.577447 l 0.336376,-1.261261 c 0,0 -10.447,-2.482431 -13.9293336,-3.309904"
         id="path7158"
         clip-path="url(#clipPath2120)"
         inkscape:path-effect="#path-effect2220"
         inkscape:original-d="M -2.1362674,13.464933 C 1.2925555,14.493058 11.57901,17.577447 11.57901,17.577447 l 0.336376,-1.261261 c 0,0 -10.447,-2.482431 -13.9293336,-3.309904"
         transform="rotate(45,4.6768343,13.558033)" />
      <path
         style="fill:#000000;fill-opacity:1;fill-rule:evenodd;stroke:#000000;stroke-width:0.10835;stroke-linecap:round;stroke-linejoin:miter;stroke-miterlimit:13.8;stroke-dasharray:none;stroke-opacity:1"
         d="m -1.8308346,13.080698 c 2.4309647,2.62894 9.723832,10.515774 9.723832,10.515774 l 0.9302494,-0.915247 c 0,0 -7.7368518,-7.450017 -10.315798,-9.933342"
         id="path7160"
         clip-path="url(#clipPath2116)"
         inkscape:path-effect="#path-effect2216"
         inkscape:original-d="m -1.8308346,13.080698 c 2.4309647,2.62894 9.723832,10.515774 9.723832,10.515774 l 0.9302494,-0.915247 c 0,0 -7.7368518,-7.450017 -10.315798,-9.933342"
         transform="rotate(45,4.6768343,13.558033)" />
      <path
         style="fill:#000000;fill-opacity:1;fill-rule:evenodd;stroke:#000000;stroke-width:0.10835;stroke-linecap:round;stroke-linejoin:miter;stroke-miterlimit:13.8;stroke-dasharray:none;stroke-opacity:1"
         d="m -1.2414695,12.686039 c 0.77543918,3.496557 3.1017431,13.986254 3.1017431,13.986254 l 1.2644649,-0.321364 c 0,0 -2.92979366,-10.336315 -3.90639157,-13.781758"
         id="path7162"
         clip-path="url(#clipPath2112)"
         inkscape:path-effect="#path-effect2212"
         inkscape:original-d="m -1.2414695,12.686039 c 0.77543918,3.496557 3.1017431,13.986254 3.1017431,13.986254 l 1.2644649,-0.321364 c 0,0 -2.92979366,-10.336315 -3.90639157,-13.781758"
         transform="rotate(45,4.6768343,13.558033)" />
      <path
         style="fill:#000000;fill-opacity:1;stroke:none;stroke-width:1.36609"
         id="rect2220"
         width="30.272137"
         height="1.285"
         x="-0.93847412"
         y="12.86725"
         clip-path="url(#clipPath2108)"
         inkscape:path-effect="#path-effect2208"
         d="M -0.93847412,12.86725 H 29.333663 v 1.285 H -0.93847412 Z"
         sodipodi:type="rect"
         transform="rotate(45,4.6768343,13.558033)" />
    </g>
  </g>
</svg>
