<?xml version="1.0" encoding="UTF-8" standalone="no"?>
<svg
   xmlns:dc="http://purl.org/dc/elements/1.1/"
   xmlns:cc="http://creativecommons.org/ns#"
   xmlns:rdf="http://www.w3.org/1999/02/22-rdf-syntax-ns#"
   xmlns:svg="http://www.w3.org/2000/svg"
   xmlns="http://www.w3.org/2000/svg"
   xmlns:sodipodi="http://sodipodi.sourceforge.net/DTD/sodipodi-0.dtd"
   xmlns:inkscape="http://www.inkscape.org/namespaces/inkscape"
   version="1.0"
   width="60"
   height="60"
   id="radioactive"
   sodipodi:docname="laser_icon.svg"
   inkscape:version="1.0.2 (e86c870879, 2021-01-15, custom)">
  <sodipodi:namedview
     pagecolor="#ffffff"
     bordercolor="#666666"
     borderopacity="1"
     objecttolerance="10"
     gridtolerance="10"
     guidetolerance="10"
     inkscape:pageopacity="0"
     inkscape:pageshadow="2"
     inkscape:window-width="1920"
     inkscape:window-height="1080"
     id="namedview2170"
     showgrid="false"
     inkscape:zoom="8.249481"
     inkscape:cx="39.596573"
     inkscape:cy="23.167275"
     inkscape:window-x="0"
     inkscape:window-y="0"
     inkscape:window-maximized="0"
     inkscape:current-layer="layer2"
     inkscape:document-rotation="0" />
  <metadata
     id="metadata2314">
    <rdf:RDF>
      <cc:Work
         rdf:about="">
        <dc:format>image/svg+xml</dc:format>
        <dc:type
           rdf:resource="http://purl.org/dc/dcmitype/StillImage" />
        <dc:title></dc:title>
      </cc:Work>
    </rdf:RDF>
  </metadata>
  <defs
     id="defs2312">
    <marker
       orient="auto"
       refY="0"
       refX="0"
       id="Torso"
       style="overflow:visible">
      <g
         id="g3468"
         transform="scale(0.7)">
        <path
           id="path3470"
           d="m -4.7792281,-3.239542 c 2.350374,0.3659393 5.30026732,1.9375477 5.03715532,3.62748546 C -0.00518779,2.0778819 -2.2126741,2.6176539 -4.5630471,2.2517169 -6.9134221,1.8857769 -8.521035,0.75201414 -8.257922,-0.93792336 -7.994809,-2.6278615 -7.1296041,-3.6054813 -4.7792281,-3.239542 Z"
           style="fill:none;fill-opacity:0.75;fill-rule:evenodd;stroke:#000000;stroke-width:1.25;marker-start:none;marker-mid:none;marker-end:none" />
        <path
           id="path3472"
           d="M 4.4598789,0.08866574 C -2.5564571,-4.378332 5.2248769,-3.9061806 -0.84829578,-8.7197331"
           style="fill:none;fill-opacity:0.75;fill-rule:evenodd;stroke:#000000;stroke-width:1pt;marker-end:none" />
        <path
           id="path3474"
           d="M 4.9298719,0.05752074 C -1.3872731,1.7494689 1.8027579,5.4782079 -4.9448731,7.5462725"
           style="fill:none;fill-opacity:0.75;fill-rule:evenodd;stroke:#000000;stroke-width:1pt;marker-start:none;marker-end:none" />
        <rect
           id="rect3476"
           transform="matrix(0.527536,-0.849533,0.887668,0.460484,0,0)"
           y="-1.7408575"
           x="-10.391706"
           height="2.7608147"
           width="2.6366582"
           style="fill-rule:evenodd;stroke-width:1pt;marker-end:none" />
        <rect
           id="rect3478"
           transform="matrix(0.671205,-0.741272,0.790802,0.612072,0,0)"
           y="-7.9629307"
           x="4.9587269"
           height="2.8614161"
           width="2.7327356"
           style="fill-rule:evenodd;stroke-width:1pt;marker-end:none" />
        <circle
           id="path3480"
           transform="matrix(0,-1.109517,1.109517,0,25.96648,19.71619)"
           style="fill:#ff0000;fill-opacity:0.75;fill-rule:evenodd;stroke:#000000;stroke-width:1pt;marker-start:none;marker-end:none"
           cx="16.172634"
           cy="-28.685045"
           r="0.60731727" />
        <circle
           id="path3482"
           transform="matrix(0,-1.109517,1.109517,0,26.8245,16.99126)"
           style="fill:#ff0000;fill-opacity:0.75;fill-rule:evenodd;stroke:#000000;stroke-width:1pt;marker-start:none;marker-end:none"
           cx="16.172634"
           cy="-28.685045"
           r="0.60731727" />
      </g>
    </marker>
    <marker
       orient="auto"
       refY="0"
       refX="0"
       id="SemiCircleOut"
       style="overflow:visible">
      <path
         id="path3513"
         d="m -2.5,-0.80913858 c 0,2.75999998 -2.24,4.99999998 -5,4.99999998 v -10 c 2.76,0 5,2.24 5,5.00000002 z"
         style="fill-rule:evenodd;stroke:#000000;stroke-width:1pt;marker-start:none;marker-end:none"
         transform="matrix(0.6,0,0,0.6,4.2752958,0.4580676)" />
    </marker>
    <marker
       style="overflow:visible"
       id="InfiniteLineEnd"
       refX="0"
       refY="0"
       orient="auto">
      <g
         id="g3453">
        <circle
           id="circle3455"
           r="0.80000001"
           cy="0"
           cx="3" />
        <circle
           id="circle3457"
           r="0.80000001"
           cy="0"
           cx="6.5" />
        <circle
           id="circle3459"
           r="0.80000001"
           cy="0"
           cx="10" />
      </g>
    </marker>
  </defs>
  <g
     id="layer4"
     transform="translate(30.605816,16.441967)">
    <rect
       style="opacity:1;fill:none;fill-opacity:1;stroke:none;stroke-width:1;stroke-linecap:round;stroke-linejoin:miter;stroke-miterlimit:13.8;stroke-dasharray:none;stroke-opacity:1"
       id="rect3396"
       width="720.8197"
       height="684.93701"
       x="-30.605816"
       y="-16.441967" />
  </g>
  <g
     id="layer1"
     style="display:inline"
     transform="translate(30.605816,16.441967)" />
  <g
     id="layer2"
     style="display:inline"
     transform="translate(30.605816,16.441967)">
    <ellipse
       cy="13.694488"
       cx="-0.93807048"
       id="inner_circle"
       style="fill:#000000;fill-opacity:1;stroke-width:0.0649594"
       rx="6.411417"
       ry="6.4152684" />
    <ellipse
       style="fill:#000000;fill-opacity:1;stroke-width:0.0649594"
       cy="13.694488"
       cx="-0.93807048"
       id="inner_circle_cutout"
       rx="4.9385238"
       ry="4.9414911" />
    <path
       style="fill:#000000;fill-opacity:1;fill-rule:evenodd;stroke:#000000;stroke-width:0.110752;stroke-linecap:round;stroke-linejoin:miter;stroke-miterlimit:13.8;stroke-dasharray:none;stroke-opacity:1"
       d="M -0.57825352,13.578051 C -0.42668418,8.5868978 0.02803717,-6.3865904 0.02803717,-6.3865904 H -1.7908483 c 0,0 0.4133879,14.9734882 0.5511794,19.9646414"
       id="path6145" />
    <path
       style="fill:#000000;fill-opacity:1;fill-rule:evenodd;stroke:#000000;stroke-width:0.110752;stroke-linecap:round;stroke-linejoin:miter;stroke-miterlimit:13.8;stroke-dasharray:none;stroke-opacity:1"
       d="M 0.02803717,13.219573 C -4.9601199,13.067912 -19.924618,12.612918 -19.924618,12.612918 v 1.819978 c 0,0 14.9644981,-0.413623 19.95265517,-0.551511"
       id="path7118" />
    <path
       style="fill:#000000;fill-opacity:1;fill-rule:evenodd;stroke:#000000;stroke-width:0.110752;stroke-linecap:round;stroke-linejoin:miter;stroke-miterlimit:13.8;stroke-dasharray:none;stroke-opacity:1"
       d="m -0.62338821,13.538014 c 0.15158267,4.991154 0.60630403,19.964642 0.60630403,19.964642 H -1.8359697 c 0,0 0.4133746,-14.973488 0.5511795,-19.964642"
       id="path7120" />
    <path
       style="fill:#000000;fill-opacity:1;fill-rule:evenodd;stroke:#000000;stroke-width:0.110752;stroke-linecap:round;stroke-linejoin:miter;stroke-miterlimit:13.8;stroke-dasharray:none;stroke-opacity:1"
       d="M -0.18104422,13.645554 C -2.547668,9.2492977 -9.6475524,-3.9394716 -9.6475524,-3.9394716 l -1.5744196,0.9113503 c 0,0 7.8513028,12.7538067 10.46840808,17.0050753"
       id="path7122" />
    <path
       style="fill:#000000;fill-opacity:1;fill-rule:evenodd;stroke:#000000;stroke-width:0.110752;stroke-linecap:round;stroke-linejoin:miter;stroke-miterlimit:13.8;stroke-dasharray:none;stroke-opacity:1"
       d="M 0.04417576,13.759486 C -4.1542709,11.060134 -16.749612,2.9620373 -16.749612,2.9620373 l -0.936318,1.5603244 c 0,0 13.0422198,7.3533803 17.38963493,9.8045163"
       id="path7124" />
    <path
       style="fill:#000000;fill-opacity:1;fill-rule:evenodd;stroke:#000000;stroke-width:0.110752;stroke-linecap:round;stroke-linejoin:miter;stroke-miterlimit:13.8;stroke-dasharray:none;stroke-opacity:1"
       d="M -0.88496675,14.010438 C 1.6903249,9.7332123 9.4162,-3.0984532 9.4162,-3.0984532 L 7.830417,-3.9898517 c 0,0 -6.9690286,13.2570994 -9.2920248,17.6761367"
       id="path7126" />
    <path
       style="fill:#000000;fill-opacity:1;fill-rule:evenodd;stroke:#000000;stroke-width:0.110752;stroke-linecap:round;stroke-linejoin:miter;stroke-miterlimit:13.8;stroke-dasharray:none;stroke-opacity:1"
       d="M -1.3480242,14.071548 C 3.0140225,11.645769 16.100148,4.3684058 16.100148,4.3684058 l -0.93149,-1.5632204 c 0,0 -12.6415407,8.0234406 -16.8553924,10.6979296"
       id="path7128" />
    <path
       style="fill:#000000;fill-opacity:1;fill-rule:evenodd;stroke:#000000;stroke-width:0.110752;stroke-linecap:round;stroke-linejoin:miter;stroke-miterlimit:13.8;stroke-dasharray:none;stroke-opacity:1"
       d="m -1.3318722,13.509681 c 2.3113391,4.425604 9.2453829,17.702415 9.2453829,17.702415 L 9.499227,30.320577 c 0,0 -7.6908636,-12.85131 -10.25447147,-17.135089"
       id="path7130" />
    <path
       style="fill:#000000;fill-opacity:1;fill-rule:evenodd;stroke:#000000;stroke-width:0.110752;stroke-linecap:round;stroke-linejoin:miter;stroke-miterlimit:13.8;stroke-dasharray:none;stroke-opacity:1"
       d="M -1.5839943,13.468256 C 2.6249092,16.151273 15.251592,24.200338 15.251592,24.200338 l 0.930263,-1.563941 c 0,0 -13.0706809,-7.30264 -17.4275792,-9.736854"
       id="path7132" />
    <path
       style="fill:#000000;fill-opacity:1;fill-rule:evenodd;stroke:#000000;stroke-width:0.110752;stroke-linecap:round;stroke-linejoin:miter;stroke-miterlimit:13.8;stroke-dasharray:none;stroke-opacity:1"
       d="M -0.27296748,12.832254 C -4.6456842,15.238695 -17.763875,22.458032 -17.763875,22.458032 l 0.924554,1.567317 c 0,0 12.6769274,-7.967362 16.90256963,-10.623154"
       id="path7134" />
    <path
       style="fill:#000000;fill-opacity:1;fill-rule:evenodd;stroke:#000000;stroke-width:0.110752;stroke-linecap:round;stroke-linejoin:miter;stroke-miterlimit:13.8;stroke-dasharray:none;stroke-opacity:1"
       d="M -0.76108637,13.240846 C -3.3638803,17.50135 -11.172302,30.282889 -11.172302,30.282889 l 1.5800076,0.901621 c 0,0 7.0543229,-13.211857 9.40576839,-17.615814"
       id="path7136" />
    <path
       style="fill:#000000;fill-opacity:1;fill-rule:evenodd;stroke:#000000;stroke-width:0.079438;stroke-linecap:round;stroke-linejoin:miter;stroke-miterlimit:13.8;stroke-dasharray:none;stroke-opacity:1"
       d="M -0.98721337,12.54308 C -1.9539147,15.991619 -4.8540054,26.33721 -4.8540054,26.33721 l 1.2662656,0.314211 c 0,0 2.2957472,-10.495557 3.06098304,-13.994075"
       id="path7140" />
    <path
       style="fill:#000000;fill-opacity:1;fill-rule:evenodd;stroke:#000000;stroke-width:0.079438;stroke-linecap:round;stroke-linejoin:miter;stroke-miterlimit:13.8;stroke-dasharray:none;stroke-opacity:1"
       d="M -0.19938353,12.495409 C -2.7529615,15.005253 -10.413722,22.534823 -10.413722,22.534823 l 0.9420668,0.903049 c 0,0 7.211134,-7.960556 9.61484986,-10.614079"
       id="path7142" />
    <path
       style="fill:#000000;fill-opacity:1;fill-rule:evenodd;stroke:#000000;stroke-width:0.079438;stroke-linecap:round;stroke-linejoin:miter;stroke-miterlimit:13.8;stroke-dasharray:none;stroke-opacity:1"
       d="M 0.6189095,13.215262 C -2.880403,13.96892 -13.37838,16.229906 -13.37838,16.229906 l 0.313128,1.26724 c 0,0 10.348529,-2.8658 13.7980386,-3.821071"
       id="path7144" />
    <path
       style="fill:#000000;fill-opacity:1;fill-rule:evenodd;stroke:#000000;stroke-width:0.079438;stroke-linecap:round;stroke-linejoin:miter;stroke-miterlimit:13.8;stroke-dasharray:none;stroke-opacity:1"
       d="M 0.7025767,14.046151 C -2.684966,12.88912 -12.847607,9.4180139 -12.847607,9.4180139 l -0.383765,1.2476481 c 0,0 10.345794,2.875635 13.7943967,3.834189"
       id="path7146" />
    <path
       style="fill:#000000;fill-opacity:1;fill-rule:evenodd;stroke:#000000;stroke-width:0.079438;stroke-linecap:round;stroke-linejoin:miter;stroke-miterlimit:13.8;stroke-dasharray:none;stroke-opacity:1"
       d="M 0.1859419,14.301828 C -2.2134925,11.644048 -9.411769,3.6706934 -9.411769,3.6706934 l -0.941106,0.9040634 c 0,0 7.647449,7.5418752 10.19659884,10.0558292"
       id="path7148" />
    <path
       style="fill:#000000;fill-opacity:1;fill-rule:evenodd;stroke:#000000;stroke-width:0.079438;stroke-linecap:round;stroke-linejoin:miter;stroke-miterlimit:13.8;stroke-dasharray:none;stroke-opacity:1"
       d="M -0.41127917,14.620857 C -1.1961747,11.126408 -3.5508612,0.64305048 -3.5508612,0.64305048 l -1.2635846,0.32479401 c 0,0 2.9577627,10.32833451 3.94368367,13.77112151"
       id="path7150" />
    <path
       style="fill:#000000;fill-opacity:1;fill-rule:evenodd;stroke:#000000;stroke-width:0.079438;stroke-linecap:round;stroke-linejoin:miter;stroke-miterlimit:13.8;stroke-dasharray:none;stroke-opacity:1"
       d="M -0.8763106,14.708137 C 0.0870964,11.258691 2.9773172,0.91033792 2.9773172,0.91033792 L 1.7107583,0.59732816 c 0,0 -2.28573075,10.49774484 -3.0476455,13.99699684"
       id="path7152" />
    <path
       style="fill:#000000;fill-opacity:1;fill-rule:evenodd;stroke:#000000;stroke-width:0.079438;stroke-linecap:round;stroke-linejoin:miter;stroke-miterlimit:13.8;stroke-dasharray:none;stroke-opacity:1"
       d="M -1.4656891,14.61776 C 1.0524773,12.072337 8.6070165,4.4360818 8.6070165,4.4360818 L 7.6523857,3.5463249 c 0,0 -7.0989108,8.0609151 -9.4652145,10.7478831"
       id="path7154" />
    <path
       style="fill:#000000;fill-opacity:1;fill-rule:evenodd;stroke:#000000;stroke-width:0.079438;stroke-linecap:round;stroke-linejoin:miter;stroke-miterlimit:13.8;stroke-dasharray:none;stroke-opacity:1"
       d="M -2.2448227,14.197051 C 1.2216791,13.304385 11.621224,10.626385 11.621224,10.626385 L 11.257839,9.3726385 c 0,0 -10.2261018,3.2763795 -13.6347981,4.3684975"
       id="path7156" />
    <path
       style="fill:#000000;fill-opacity:1;fill-rule:evenodd;stroke:#000000;stroke-width:0.079438;stroke-linecap:round;stroke-linejoin:miter;stroke-miterlimit:13.8;stroke-dasharray:none;stroke-opacity:1"
       d="M -2.1362674,13.464933 C 1.2925555,14.493058 11.57901,17.577447 11.57901,17.577447 l 0.336376,-1.261261 c 0,0 -10.447,-2.482431 -13.9293336,-3.309904"
       id="path7158" />
    <path
       style="fill:#000000;fill-opacity:1;fill-rule:evenodd;stroke:#000000;stroke-width:0.079438;stroke-linecap:round;stroke-linejoin:miter;stroke-miterlimit:13.8;stroke-dasharray:none;stroke-opacity:1"
       d="m -1.8308346,13.080698 c 2.4309647,2.62894 9.723832,10.515774 9.723832,10.515774 l 0.9302494,-0.915247 c 0,0 -7.7368518,-7.450017 -10.315798,-9.933342"
       id="path7160" />
    <path
       style="fill:#000000;fill-opacity:1;fill-rule:evenodd;stroke:#000000;stroke-width:0.079438;stroke-linecap:round;stroke-linejoin:miter;stroke-miterlimit:13.8;stroke-dasharray:none;stroke-opacity:1"
       d="m -1.2414695,12.686039 c 0.77543918,3.496557 3.1017431,13.986254 3.1017431,13.986254 l 1.2644649,-0.321364 c 0,0 -2.92979366,-10.336315 -3.90639157,-13.781758"
       id="path7162" />
    <rect
       style="fill:#000000;fill-opacity:1;stroke:none;stroke-width:1.00157"
       id="rect2220"
       width="30.272137"
       height="1.285"
       x="-0.93847412"
       y="12.86725" />
  </g>
</svg>
